<svg width="59" height="10" viewBox="0 0 59 10" fill="none" xmlns="http://www.w3.org/2000/svg">
<path d="M26.1406 9L23.7188 2.67188H23.6797C23.7253 3.17318 23.748 3.76888 23.748 4.45898V9H22.9814V1.86133H24.2314L26.4922 7.75H26.5312L28.8115 1.86133H30.0518V9H29.2217V4.40039C29.2217 3.87305 29.2445 3.30013 29.29 2.68164H29.251L26.8096 9H26.1406Z" fill="#9C9898"/>
<path d="M35.1836 9L35.0225 8.23828H34.9834C34.7165 8.57357 34.4495 8.80143 34.1826 8.92188C33.9189 9.03906 33.5885 9.09766 33.1914 9.09766C32.6608 9.09766 32.2441 8.96094 31.9414 8.6875C31.6419 8.41406 31.4922 8.02507 31.4922 7.52051C31.4922 6.43978 32.3564 5.87337 34.085 5.82129L34.9932 5.79199V5.45996C34.9932 5.04004 34.902 4.73079 34.7197 4.53223C34.5407 4.3304 34.2526 4.22949 33.8555 4.22949C33.4095 4.22949 32.9049 4.36621 32.3418 4.63965L32.0928 4.01953C32.3564 3.8763 32.6445 3.764 32.957 3.68262C33.2728 3.60124 33.5885 3.56055 33.9043 3.56055C34.5423 3.56055 35.0143 3.70215 35.3203 3.98535C35.6296 4.26855 35.7842 4.72266 35.7842 5.34766V9H35.1836ZM33.3525 8.42871C33.8571 8.42871 34.2526 8.29036 34.5391 8.01367C34.8288 7.73698 34.9736 7.34961 34.9736 6.85156V6.36816L34.1631 6.40234C33.5186 6.42513 33.0531 6.52604 32.7666 6.70508C32.4834 6.88086 32.3418 7.15592 32.3418 7.53027C32.3418 7.82324 32.4297 8.04622 32.6055 8.19922C32.7845 8.35221 33.0335 8.42871 33.3525 8.42871Z" fill="#9C9898"/>
<path d="M39.9004 3.55078C40.138 3.55078 40.3512 3.57031 40.54 3.60938L40.4277 4.36133C40.2064 4.3125 40.0111 4.28809 39.8418 4.28809C39.4089 4.28809 39.0378 4.46387 38.7285 4.81543C38.4225 5.16699 38.2695 5.60482 38.2695 6.12891V9H37.459V3.64844H38.1279L38.2207 4.63965H38.2598C38.4583 4.29134 38.6976 4.02279 38.9775 3.83398C39.2575 3.64518 39.5651 3.55078 39.9004 3.55078Z" fill="#9C9898"/>
<path d="M44.832 9L44.6709 8.23828H44.6318C44.3649 8.57357 44.098 8.80143 43.8311 8.92188C43.5674 9.03906 43.237 9.09766 42.8398 9.09766C42.3092 9.09766 41.8926 8.96094 41.5898 8.6875C41.2904 8.41406 41.1406 8.02507 41.1406 7.52051C41.1406 6.43978 42.0049 5.87337 43.7334 5.82129L44.6416 5.79199V5.45996C44.6416 5.04004 44.5505 4.73079 44.3682 4.53223C44.1891 4.3304 43.901 4.22949 43.5039 4.22949C43.0579 4.22949 42.5534 4.36621 41.9902 4.63965L41.7412 4.01953C42.0049 3.8763 42.293 3.764 42.6055 3.68262C42.9212 3.60124 43.237 3.56055 43.5527 3.56055C44.1908 3.56055 44.6628 3.70215 44.9688 3.98535C45.278 4.26855 45.4326 4.72266 45.4326 5.34766V9H44.832ZM43.001 8.42871C43.5055 8.42871 43.901 8.29036 44.1875 8.01367C44.4772 7.73698 44.6221 7.34961 44.6221 6.85156V6.36816L43.8115 6.40234C43.167 6.42513 42.7015 6.52604 42.415 6.70508C42.1318 6.88086 41.9902 7.15592 41.9902 7.53027C41.9902 7.82324 42.0781 8.04622 42.2539 8.19922C42.4329 8.35221 42.682 8.42871 43.001 8.42871Z" fill="#9C9898"/>
<path d="M49.5195 4.27832H48.1572V9H47.3467V4.27832H46.3896V3.91211L47.3467 3.61914V3.32129C47.3467 2.00618 47.9212 1.34863 49.0703 1.34863C49.3535 1.34863 49.6855 1.4056 50.0664 1.51953L49.8564 2.16895C49.5439 2.06803 49.277 2.01758 49.0557 2.01758C48.7497 2.01758 48.5234 2.12012 48.377 2.3252C48.2305 2.52702 48.1572 2.85254 48.1572 3.30176V3.64844H49.5195V4.27832Z" fill="#9C9898"/>
<path d="M52.7568 9.09766C51.9658 9.09766 51.3408 8.85677 50.8818 8.375C50.4261 7.89323 50.1982 7.22428 50.1982 6.36816C50.1982 5.50553 50.4098 4.82031 50.833 4.3125C51.2594 3.80469 51.8307 3.55078 52.5469 3.55078C53.2174 3.55078 53.748 3.77214 54.1387 4.21484C54.5293 4.6543 54.7246 5.23535 54.7246 5.95801V6.4707H51.0381C51.0544 7.09896 51.2122 7.57585 51.5117 7.90137C51.8145 8.22689 52.2393 8.38965 52.7861 8.38965C53.3623 8.38965 53.932 8.26921 54.4951 8.02832V8.75098C54.2087 8.87467 53.9368 8.96257 53.6797 9.01465C53.4258 9.06999 53.1182 9.09766 52.7568 9.09766ZM52.5371 4.22949C52.1074 4.22949 51.764 4.36947 51.5068 4.64941C51.2529 4.92936 51.1032 5.31673 51.0576 5.81152H53.8555C53.8555 5.30046 53.7415 4.90983 53.5137 4.63965C53.2858 4.36621 52.9603 4.22949 52.5371 4.22949Z" fill="#9C9898"/>
<path d="M57.8398 8.42871C57.9831 8.42871 58.1214 8.41895 58.2549 8.39941C58.3883 8.37663 58.4941 8.35384 58.5723 8.33105V8.95117C58.4844 8.99349 58.3542 9.02767 58.1816 9.05371C58.0124 9.08301 57.8594 9.09766 57.7227 9.09766C56.6875 9.09766 56.1699 8.55241 56.1699 7.46191V4.27832H55.4033V3.8877L56.1699 3.55078L56.5117 2.4082H56.9805V3.64844H58.5332V4.27832H56.9805V7.42773C56.9805 7.75 57.057 7.9974 57.21 8.16992C57.363 8.34245 57.5729 8.42871 57.8398 8.42871Z" fill="#9C9898"/>
<path d="M15.0273 0.976562C15.1094 0.648438 15.0273 0.375 14.5352 0.375H12.9219C12.5117 0.375 12.3203 0.59375 12.2109 0.839844C12.2109 0.839844 11.3906 2.83594 10.2422 4.14844C9.85938 4.50391 9.69531 4.64062 9.47656 4.64062C9.39453 4.64062 9.23047 4.50391 9.23047 4.17578V0.976562C9.23047 0.566406 9.12109 0.375 8.76562 0.375H6.25C5.97656 0.375 5.83984 0.566406 5.83984 0.757812C5.83984 1.14062 6.41406 1.22266 6.46875 2.31641V4.69531C6.46875 5.21484 6.38672 5.32422 6.16797 5.32422C5.62109 5.32422 4.30859 3.30078 3.51562 1.00391C3.35156 0.566406 3.1875 0.375 2.77734 0.375H1.16406C0.726562 0.375 0.617188 0.59375 0.617188 0.839844C0.617188 1.27734 1.16406 3.38281 3.16016 6.19922C4.5 8.11328 6.38672 9.125 8.08203 9.125C9.09375 9.125 9.23047 8.90625 9.23047 8.52344C9.23047 6.69141 9.14844 6.5 9.64062 6.5C9.88672 6.5 10.2969 6.63672 11.2539 7.56641C12.3477 8.66016 12.5391 9.125 13.1406 9.125H14.7539C15.2188 9.125 15.4375 8.90625 15.3008 8.44141C15 7.51172 12.9492 5.54297 12.8398 5.40625C12.5938 5.10547 12.6758 4.96875 12.8398 4.69531C12.8398 4.69531 14.8086 1.90625 15.0273 0.976562Z" fill="#9C9898"/>
</svg>
