<svg width="18" height="17" viewBox="0 0 18 17" fill="none" xmlns="http://www.w3.org/2000/svg">
<path d="M15.304 2.47031C13.6205 0.876562 11.3786 0 8.99598 0C4.07812 0 0.0763393 3.77946 0.0763393 8.42411C0.0763393 9.90781 0.486161 11.3574 1.26562 12.6362L0 17L4.72902 15.8275C6.0308 16.4991 7.49732 16.852 8.99196 16.852H8.99598C13.9098 16.852 18 13.0725 18 8.4279C18 6.17768 16.9875 4.06406 15.304 2.47031ZM8.99598 15.4328C7.66205 15.4328 6.35625 15.0951 5.2192 14.4576L4.95 14.3058L2.14554 15.0002L2.89286 12.4161L2.71607 12.1504C1.97277 11.0348 1.58304 9.74844 1.58304 8.42411C1.58304 4.56496 4.90982 1.42299 9 1.42299C10.9808 1.42299 12.8411 2.15156 14.2393 3.47589C15.6375 4.80022 16.4973 6.55714 16.4933 8.4279C16.4933 12.2908 13.0821 15.4328 8.99598 15.4328ZM13.0621 10.1886C12.8411 10.0824 11.7442 9.57388 11.5393 9.50558C11.3344 9.43348 11.1857 9.39933 11.0371 9.61183C10.8884 9.82433 10.4625 10.2949 10.3299 10.4391C10.2013 10.5795 10.0688 10.5984 9.84777 10.4922C8.53795 9.87366 7.67813 9.38795 6.81429 7.98772C6.58527 7.61585 7.0433 7.64241 7.4692 6.83795C7.54152 6.69754 7.50536 6.57612 7.44911 6.46987C7.39286 6.36362 6.94688 5.32768 6.76205 4.90647C6.58125 4.49665 6.39643 4.55357 6.25982 4.54598C6.13125 4.53839 5.98259 4.53839 5.83393 4.53839C5.68527 4.53839 5.4442 4.59152 5.23929 4.80022C5.03437 5.01272 4.45982 5.52121 4.45982 6.55714C4.45982 7.59308 5.25938 8.59487 5.36786 8.73527C5.48036 8.87567 6.93884 11.0007 9.17679 11.9152C10.5911 12.492 11.1455 12.5413 11.8527 12.4426C12.2826 12.3819 13.1705 11.9342 13.3554 11.4408C13.5402 10.9475 13.5402 10.5263 13.4839 10.4391C13.4317 10.3442 13.283 10.2911 13.0621 10.1886Z" fill="#9C9898"/>
</svg>
